<?xml version="1.0" encoding="utf-8"?>
<!-- Generator: Adobe Illustrator 16.0.0, SVG Export Plug-In . SVG Version: 6.00 Build 0)  -->
<!DOCTYPE svg PUBLIC "-//W3C//DTD SVG 1.1//EN" "http://www.w3.org/Graphics/SVG/1.1/DTD/svg11.dtd">
<svg version="1.1" id="Layer_1" xmlns="http://www.w3.org/2000/svg" xmlns:xlink="http://www.w3.org/1999/xlink" x="0px" y="0px"
	 width="32px" height="64px" viewBox="0 0 32 64" enable-background="new 0 0 32 64" xml:space="preserve">
<path d="M24.193,7.375H7.806c-2.609,0-4.744,2.413-4.744,5.362v42.474c0,2.95,2.135,5.363,4.744,5.363h16.387
	c2.609,0,4.744-2.413,4.744-5.363V12.737C28.938,9.788,26.803,7.375,24.193,7.375z M16,58.842c-1.214,0-2.198-1-2.198-2.232
	c0-1.234,0.984-2.233,2.198-2.233s2.197,0.999,2.197,2.233C18.197,57.842,17.214,58.842,16,58.842z M26.896,51.668H5.103V16.161
	h21.793V51.668z"/>
<ellipse fill="#FFFFFF" cx="16" cy="10.466" rx="0.582" ry="0.591"/>
<path fill="#FFFFFF" d="M18.747,12.796c0,0.327-0.319,0.591-0.715,0.591h-4.065c-0.395,0-0.714-0.264-0.714-0.591l0,0
	c0-0.326,0.319-0.591,0.714-0.591h4.065C18.428,12.205,18.747,12.47,18.747,12.796L18.747,12.796z"/>
</svg>
